com\example\repo\ProductRepo.class
com\example\controller\MainController.class
com\example\model\Product.class
com\example\service\ProductService.class
com\example\ServletInitializer.class
com\example\SpringJpa2Application.class
com\example\service\ProductServiceImpl.class
